<?xml version="1.0" encoding="UTF-8" standalone="no"?>
<svg width="150px" height="150px" viewBox="0 0 150 150" version="1.1" xmlns="http://www.w3.org/2000/svg" xmlns:xlink="http://www.w3.org/1999/xlink" xmlns:sketch="http://www.bohemiancoding.com/sketch/ns">
    <!-- Generator: Sketch 3.3.1 (12002) - http://www.bohemiancoding.com/sketch -->
    <title>menu-btn-close</title>
    <desc>Created with Sketch.</desc>
    <defs></defs>
    <g id="Page-1" stroke="none" stroke-width="1" fill="none" fill-rule="evenodd" sketch:type="MSPage">
        <g id="menu-btn-close" sketch:type="MSArtboardGroup" fill="#FFFFFF">
            <path d="M120.062616,98.6250282 L96.4375882,75 L120.062616,51.3749718 C121.509047,49.9285415 122.312619,47.9196106 122.312619,45.9106796 C122.312619,43.9017486 121.509047,41.8928177 120.062616,40.4463874 L109.134032,29.5178029 C107.687602,28.0713726 105.678671,27.2678002 103.66974,27.2678002 C101.660809,27.2678002 99.6518778,28.0713726 98.2054475,29.5178029 L74.5804193,53.1428311 L50.9553911,29.5178029 C49.5089609,28.0713726 47.5000299,27.2678002 45.4910989,27.2678002 C43.482168,27.2678002 41.473237,28.0713726 40.0268067,29.5178029 L29.0982222,40.4463874 C27.6517919,41.8928177 26.8482196,43.9017486 26.8482196,45.9106796 C26.8482196,47.9196106 27.6517919,49.9285415 29.0982222,51.3749718 L52.7232504,75 L29.0982222,98.6250282 C27.6517919,100.071458 26.8482196,102.080389 26.8482196,104.08932 C26.8482196,106.098251 27.6517919,108.107182 29.0982222,109.553613 L40.0268067,120.482197 C41.473237,121.928627 43.482168,122.7322 45.4910989,122.7322 C47.5000299,122.7322 49.5089609,121.928627 50.9553911,120.482197 L74.5804193,96.8571689 L98.2054475,120.482197 C99.6518778,121.928627 101.660809,122.7322 103.66974,122.7322 C105.678671,122.7322 107.687602,121.928627 109.134032,120.482197 L120.062616,109.553613 C121.509047,108.107182 122.312619,106.098251 122.312619,104.08932 C122.312619,102.080389 121.509047,100.071458 120.062616,98.6250282 Z" id="close" sketch:type="MSShapeGroup"></path>
        </g>
    </g>
</svg>